{"DataIdentifiers": [
   {"DID": [
      {"Name": "FSC event data 1" },
      {"HexNr": "0x2080"},
      {"Type":"packeted"},
      {"ByteSize": 289},
      {"DsSubFields":[
         {"DsSubField":[
            {"DsId": "DS002" },
            {"DsDscr":"Ignition-On duration"},
            {"DsStartByte": 1},
            {"DsLength": 4},
            {"DsFields":[
               {"DsField":[
                  {"Name" :"StateChangeCtr_C1"},
                  {"Descr":"StateChangeCtr_C1"},
                  {"Type":"-"},
                  {"MSB": 1},
                  {"LSB": 4},
                  {"Unit": "seconds"},						
						{"Resolution": 0.1}
               ]}
            ]}
         ]},
         {"DsSubField":[
            {"DsId": "DS003" },
            {"DsDscr":"Ignition cycle count by distance"},
            {"DsStartByte": 5},
            {"DsLength": 46},
            {"DsFields":[
               {"DsField":[
                  {"Name" :"StateChangeCtr_C1"},
                  {"Descr":"StateChangeCtr_C1"},
                  {"Type":"-"},
                  {"MSB": 5},
                  {"LSB": 6},
                  {"Unit": "-"}
               ]},
               {"DsField":[
                  {"Name" :"StateChangeCtr_C2"},
                  {"Descr":"StateChangeCtr_C2"},
                  {"Type":"-"},
                  {"MSB": 7},
                  {"LSB": 8},
                  {"Unit": "-"}
               ]},
               {"DsField":[
                  {"Name" :"StateChangeCtr_C3"},
                  {"Descr":"StateChangeCtr_C3"},
                  {"Type":"-"},
                  {"MSB": 9},
                  {"LSB": 10},
                  {"Unit": "-"}
               ]},
               {"DsField":[
                  {"Name" :"StateChangeCtr_C4"},
                  {"Descr":"StateChangeCtr_C4"},
                  {"Type":"-"},
                  {"MSB": 11},
                  {"LSB": 12},
                  {"Unit": "-"}
               ]},
               {"DsField":[
                  {"Name" :"StateChangeCtr_C5"},
                  {"Descr":"StateChangeCtr_C5"},
                  {"Type":"-"},
                  {"MSB": 13},
                  {"LSB": 14},
                  {"Unit": "-"}
               ]},
               {"DsField":[
                  {"Name" :"StateChangeCtr_C6"},
                  {"Descr":"StateChangeCtr_C6"},
                  {"Type":"-"},
                  {"MSB": 15},
                  {"LSB": 16},
                  {"Unit": "-"}
               ]},
               {"DsField":[
                  {"Name" :"StateChangeCtr_C7"},
                  {"Descr":"StateChangeCtr_C7"},
                  {"Type":"-"},
                  {"MSB": 17},
                  {"LSB": 18},
                  {"Unit": "-"}
               ]},
               {"DsField":[
                  {"Name" :"StateChangeCtr_C8"},
                  {"Descr":"StateChangeCtr_C8"},
                  {"Type":"-"},
                  {"MSB": 19},
                  {"LSB": 20},
                  {"Unit": "-"}
               ]},
               {"DsField":[
                  {"Name" :"Event 0 ODO"},
                  {"Descr":"Event 0 ODO"},
                  {"Type":"ODO"},
                  {"MSB": 21},
                  {"LSB": 24},
                  {"Unit": "km"},
                  {"Resolution": 0.0001}
               ]},
               {"DsField":[
                  {"Name" :"Event_0_ClassID"},
                  {"Descr":"Event_0_ClassID"},
                  {"Type":"-"},
                  {"MSB": 25},
                  {"LSB": 25},
                  {"Unit": "-"}
               ]},
               {"DsField":[
                  {"Name" :"Event 1 ODO"},
                  {"Descr":"Event 1 ODO"},
                  {"Type":"ODO"},
                  {"MSB": 26},
                  {"LSB": 29},
                  {"Unit": "km"},
                  {"Resolution": 0.0001}
               ]},
               {"DsField":[
                  {"Name" :"Event_0_ClassID"},
                  {"Descr":"Event_0_ClassID"},
                  {"Type":"-"},
                  {"MSB": 30},
                  {"LSB": 30},
                  {"Unit": "-"}
               ]},
               {"DsField":[
                  {"Name" :"Event 2 ODO"},
                  {"Descr":"Event 2 ODO"},
                  {"Type":"ODO"},
                  {"MSB": 31},
                  {"LSB": 34},
                  {"Unit": "km"},
                  {"Resolution": 0.0001}
               ]},
               {"DsField":[
                  {"Name" :"Event_0_ClassID"},
                  {"Descr":"Event_0_ClassID"},
                  {"Type":"-"},
                  {"MSB": 35},
                  {"LSB": 35},
                  {"Unit": "-"}
               ]},
               {"DsField":[
                  {"Name" :"Event 2 ODO"},
                  {"Descr":"Event 2 ODO"},
                  {"Type":"ODO"},
                  {"MSB": 36},
                  {"LSB": 39},
                  {"Unit": "km"},
                  {"Resolution": 0.0001}
               ]},
               {"DsField":[
                  {"Name" :"Event_0_ClassID"},
                  {"Descr":"Event_0_ClassID"},
                  {"Type":"-"},
                  {"MSB": 40},
                  {"LSB": 40},
                  {"Unit": "-"}
               ]},
               {"DsField":[
                  {"Name" :"Event 2 ODO"},
                  {"Descr":"Event 2 ODO"},
                  {"Type":"ODO"},
                  {"MSB": 41},
                  {"LSB": 44},
                  {"Unit": "km"},
                  {"Resolution": 0.0001}
               ]},
               {"DsField":[
                  {"Name" :"Event_0_ClassID"},
                  {"Descr":"Event_0_ClassID"},
                  {"Type":"-"},
                  {"MSB": 45},
                  {"LSB": 45},
                  {"Unit": "-"}
               ]},
               {"DsField":[
                  {"Name" :"Event 2 ODO"},
                  {"Descr":"Event 2 ODO"},
                  {"Type":"ODO"},
                  {"MSB": 46},
                  {"LSB": 49},
                  {"Unit": "km"},
                  {"Resolution": 0.0001}
               ]},
               {"DsField":[
                  {"Name" :"Event_0_ClassID"},
                  {"Descr":"Event_0_ClassID"},
                  {"Type":"-"},
                  {"MSB": 50},
                  {"LSB": 50},
                  {"Unit": "-"}
               ]}
            ]}
         ]},
         {"DsSubField":[
            {"DsId": "DS004" },
            {"DsDscr":"Ignition state change count by"},
            {"DsStartByte": 51},
            {"DsLength": 27},
            {"DsFields":[
               {"DsField":[
                  {"Name" :"StateChangeCtr_C1"},
                  {"Descr":"StateChangeCtr_C1"},
                  {"Type":"-"},
                  {"MSB": 51},
                  {"LSB": 54},
                  {"Unit": "-"}
               ]},
               {"DsField":[
                  {"Name" :"StateChangeCtr_C2"},
                  {"Descr":"StateChangeCtr_C2"},
                  {"Type":"-"},
                  {"MSB": 55},
                  {"LSB": 58},
                  {"Unit": "-"}
               ]},
               {"DsField":[
                  {"Name" :"StateChangeCtr_C3"},
                  {"Descr":"StateChangeCtr_C3"},
                  {"Type":"-"},
                  {"MSB": 59},
                  {"LSB": 62},
                  {"Unit": "-"}
               ]},
               {"DsField":[
                  {"Name" :"Event 0 ODO"},
                  {"Descr":"Event 0 ODO"},
                  {"Type":"ODO"},
                  {"MSB": 63},
                  {"LSB": 66},
                  {"Unit": "km"},
                  {"Resolution": 0.0001}
               ]},
               {"DsField":[
                  {"Name" :"Event_0_ClassID"},
                  {"Descr":"Event_0_ClassID"},
                  {"Type":"-"},
                  {"MSB": 67},
                  {"LSB": 67},
                  {"Unit": "-"}
               ]},
               {"DsField":[
                  {"Name" :"Event 1 ODO"},
                  {"Descr":"Event 1 ODO"},
                  {"Type":"ODO"},
                  {"MSB": 68},
                  {"LSB": 71},
                  {"Unit": "km"},
                  {"Resolution": 0.0001}
               ]},
               {"DsField":[
                  {"Name" :"Event_1_ClassID"},
                  {"Descr":"Event_1_ClassID"},
                  {"Type":"-"},
                  {"MSB": 72},
                  {"LSB": 72},
                  {"Unit": "-"}
               ]},
               {"DsField":[
                  {"Name" :"Event 2 ODO"},
                  {"Descr":"Event 2 ODO"},
                  {"Type":"ODO"},
                  {"MSB": 73},
                  {"LSB": 76},
                  {"Unit": "km"},
                  {"Resolution": 0.0001}
               ]},
               {"DsField":[
                  {"Name" :"Event_2_ClassID"},
                  {"Descr":"Event_2_ClassID"},
                  {"Type":"-"},
                  {"MSB": 77},
                  {"LSB": 77},
                  {"Unit": "-"}
               ]}
            ]}
         ]},
         {"DsSubField":[
            {"DsId": "DS012" },
            {"DsDscr":"Stop-Start status"},
            {"DsStartByte": 78},
            {"DsLength": 19},
            {"DsFields":[
               {"DsField":[
                  {"Name" :"StateChangeCtr_C1"},
                  {"Descr":"StateChangeCtr_C1"},
                  {"Type":"-"},
                  {"MSB": 78},
                  {"LSB": 79},
                  {"Unit": "-"}
               ]},
               {"DsField":[
                  {"Name" :"StateChangeCtr_C2"},
                  {"Descr":"StateChangeCtr_C2"},
                  {"Type":"-"},
                  {"MSB": 80},
                  {"LSB": 81},
                  {"Unit": "-"}
               ]},
               {"DsField":[
                  {"Name" :"Event 0 ODO"},
                  {"Descr":"Event 0 ODO"},
                  {"Type":"ODO"},
                  {"MSB": 82},
                  {"LSB": 85},
                  {"Unit": "km"},
                  {"Resolution": 0.0001}
               ]},
               {"DsField":[
                  {"Name" :"Event_0_ClassID"},
                  {"Descr":"Event_0_ClassID"},
                  {"Type":"-"},
                  {"MSB": 86},
                  {"LSB": 86},
                  {"Unit": "-"}
               ]},
               {"DsField":[
                  {"Name" :"Event 1 ODO"},
                  {"Descr":"Event 1 ODO"},
                  {"Type":"ODO"},
                  {"MSB": 87},
                  {"LSB": 90},
                  {"Unit": "km"},
                  {"Resolution": 0.0001}
               ]},
               {"DsField":[
                  {"Name" :"Event_1_ClassID"},
                  {"Descr":"Event_1_ClassID"},
                  {"Type":"-"},
                  {"MSB": 91},
                  {"LSB": 91},
                  {"Unit": "-"}
               ]},
               {"DsField":[
                  {"Name" :"Event 2 ODO"},
                  {"Descr":"Event 2 ODO"},
                  {"Type":"ODO"},
                  {"MSB": 92},
                  {"LSB": 95},
                  {"Unit": "km"},
                  {"Resolution": 0.0001}
               ]},
               {"DsField":[
                  {"Name" :"Event_2_ClassID"},
                  {"Descr":"Event_2_ClassID"},
                  {"Type":"-"},
                  {"MSB": 96},
                  {"LSB": 96},
                  {"Unit": "-"}
               ]}
            ]}
         ]},
         {"DsSubField":[
            {"DsId": "DS013" },
            {"DsDscr":"Engine speed count"},
            {"DsStartByte": 97},
            {"DsLength": 56},
            {"DsFields":[
               {"DsField":[
                  {"Name" :"StateChangeCtr_C1"},
                  {"Descr":"StateChangeCtr_C1"},
                  {"Type":"-"},
                  {"MSB": 97},
                  {"LSB": 100},
                  {"Unit": "-"}
               ]},
               {"DsField":[
                  {"Name" :"StateChangeCtr_C2"},
                  {"Descr":"StateChangeCtr_C2"},
                  {"Type":"-"},
                  {"MSB": 101},
                  {"LSB": 104},
                  {"Unit": "-"}
               ]},
               {"DsField":[
                  {"Name" :"StateChangeCtr_C3"},
                  {"Descr":"StateChangeCtr_C3"},
                  {"Type":"-"},
                  {"MSB": 105},
                  {"LSB": 108},
                  {"Unit": "-"}
               ]},
               {"DsField":[
                  {"Name" :"StateChangeCtr_C4"},
                  {"Descr":"StateChangeCtr_C4"},
                  {"Type":"-"},
                  {"MSB": 109},
                  {"LSB": 112},
                  {"Unit": "-"}
               ]},
               {"DsField":[
                  {"Name" :"StateChangeCtr_C5"},
                  {"Descr":"StateChangeCtr_C5"},
                  {"Type":"-"},
                  {"MSB": 113},
                  {"LSB": 116},
                  {"Unit": "-"}
               ]},
               {"DsField":[
                  {"Name" :"StateChangeCtr_C6"},
                  {"Descr":"StateChangeCtr_C6"},
                  {"Type":"-"},
                  {"MSB": 117},
                  {"LSB": 120},
                  {"Unit": "-"}
               ]},
               {"DsField":[
                  {"Name" :"StateChangeCtr_C7"},
                  {"Descr":"StateChangeCtr_C7"},
                  {"Type":"-"},
                  {"MSB": 121},
                  {"LSB": 124},
                  {"Unit": "-"}
               ]},
               {"DsField":[
                  {"Name" :"StateChangeCtr_C8"},
                  {"Descr":"StateChangeCtr_C8"},
                  {"Type":"-"},
                  {"MSB": 125},
                  {"LSB": 128},
                  {"Unit": "-"}
               ]},
               {"DsField":[
                  {"Name" :"StateChangeCtr_C9"},
                  {"Descr":"StateChangeCtr_C9"},
                  {"Type":"-"},
                  {"MSB": 129},
                  {"LSB": 132},
                  {"Unit": "-"}
               ]},
               {"DsField":[
                  {"Name" :"StateChangeCtr_C10"},
                  {"Descr":"StateChangeCtr_C10"},
                  {"Type":"-"},
                  {"MSB": 133},
                  {"LSB": 136},
                  {"Unit": "-"}
               ]},
               {"DsField":[
                  {"Name" :"StateChangeCtr_C11"},
                  {"Descr":"StateChangeCtr_C11"},
                  {"Type":"-"},
                  {"MSB": 137},
                  {"LSB": 140},
                  {"Unit": "-"}
               ]},
               {"DsField":[
                  {"Name" :"StateChangeCtr_C12"},
                  {"Descr":"StateChangeCtr_C12"},
                  {"Type":"-"},
                  {"MSB": 141},
                  {"LSB": 144},
                  {"Unit": "-"}
               ]},
               {"DsField":[
                  {"Name" :"StateChangeCtr_C13"},
                  {"Descr":"StateChangeCtr_C13"},
                  {"Type":"-"},
                  {"MSB": 145},
                  {"LSB": 148},
                  {"Unit": "-"}
               ]},
               {"DsField":[
                  {"Name" :"StateChangeCtr_C14"},
                  {"Descr":"StateChangeCtr_C14"},
                  {"Type":"-"},
                  {"MSB": 149},
                  {"LSB": 152},
                  {"Unit": "-"}
               ]}
            ]}
         ]},
         {"DsSubField":[
            {"DsId": "DS113" },
            {"DsDscr":"Brake light active"},
            {"DsStartByte": 153},
            {"DsLength": 19},
            {"DsFields":[
               {"DsField":[
                  {"Name" :"StateChangeCtr_C1"},
                  {"Descr":"StateChangeCtr_C1"},
                  {"Type":"-"},
                  {"MSB": 153},
                  {"LSB": 156},
                  {"Unit": "-"}
               ]},
               {"DsField":[
                  {"Name" :"Event 0 ODO"},
                  {"Descr":"Event 0 ODO"},
                  {"Type":"ODO"},
                  {"MSB": 157},
                  {"LSB": 160},
                  {"Unit": "km"},
                  {"Resolution": 0.0001}
               ]},
               {"DsField":[
                  {"Name" :"Event_0_ClassID"},
                  {"Descr":"Event_0_ClassID"},
                  {"Type":"-"},
                  {"MSB": 161},
                  {"LSB": 161},
                  {"Unit": "-"}
               ]},
               {"DsField":[
                  {"Name" :"Event 1 ODO"},
                  {"Descr":"Event 1 ODO"},
                  {"Type":"ODO"},
                  {"MSB": 162},
                  {"LSB": 165},
                  {"Unit": "km"},
                  {"Resolution": 0.0001}
               ]},
               {"DsField":[
                  {"Name" :"Event_1_ClassID"},
                  {"Descr":"Event_1_ClassID"},
                  {"Type":"-"},
                  {"MSB": 166},
                  {"LSB": 166},
                  {"Unit": "-"}
               ]},
               {"DsField":[
                  {"Name" :"Event 2 ODO"},
                  {"Descr":"Event 2 ODO"},
                  {"Type":"ODO"},
                  {"MSB": 167},
                  {"LSB": 170},
                  {"Unit": "km"},
                  {"Resolution": 0.0001}
               ]},
               {"DsField":[
                  {"Name" :"Event_2_ClassID"},
                  {"Descr":"Event_2_ClassID"},
                  {"Type":"-"},
                  {"MSB": 171},
                  {"LSB": 171},
                  {"Unit": "-"}
               ]}
            ]}
         ]},
         {"DsSubField":[
            {"DsId": "DS211" },
            {"DsDscr":"Driver Brake Count"},
            {"DsStartByte": 172},
            {"DsLength": 4},
            {"DsFields":[
               {"DsField":[
                  {"Name" :"StateChangeCtr_C1"},
                  {"Descr":"StateChangeCtr_C1"},
                  {"Type":"-"},
                  {"MSB": 172},
                  {"LSB": 175},
                  {"Unit": "-"}
               ]}
            ]}
         ]},
         {"DsSubField":[
            {"DsId": "DS214" },
            {"DsDscr":"Static brake distribution"},
            {"DsStartByte": 176},
            {"DsLength": 25},
            {"DsFields":[
               {"DsField":[
                  {"Name" :"StateChangeCtr_C1"},
                  {"Descr":"StateChangeCtr_C1"},
                  {"Type":"-"},
                  {"MSB": 176},
                  {"LSB": 177},
                  {"Unit": "-"}
               ]},
               {"DsField":[
                  {"Name" :"StateChangeCtr_C2"},
                  {"Descr":"StateChangeCtr_C2"},
                  {"Type":"-"},
                  {"MSB": 178},
                  {"LSB": 179},
                  {"Unit": "-"}
               ]},
               {"DsField":[
                  {"Name" :"StateChangeCtr_C3"},
                  {"Descr":"StateChangeCtr_C3"},
                  {"Type":"-"},
                  {"MSB": 180},
                  {"LSB": 181},
                  {"Unit": "-"}
               ]},
               {"DsField":[
                  {"Name" :"StateChangeCtr_C4"},
                  {"Descr":"StateChangeCtr_C4"},
                  {"Type":"-"},
                  {"MSB": 182},
                  {"LSB": 183},
                  {"Unit": "-"}
               ]},
               {"DsField":[
                  {"Name" :"StateChangeCtr_C5"},
                  {"Descr":"StateChangeCtr_C5"},
                  {"Type":"-"},
                  {"MSB": 184},
                  {"LSB": 185},
                  {"Unit": "-"}
               ]},
               {"DsField":[
                  {"Name" :"Event 0 ODO"},
                  {"Descr":"Event 0 ODO"},
                  {"Type":"ODO"},
                  {"MSB": 186},
                  {"LSB": 189},
                  {"Unit": "km"},
                  {"Resolution": 0.0001}
               ]},
               {"DsField":[
                  {"Name" :"Event_0_ClassID"},
                  {"Descr":"Event_0_ClassID"},
                  {"Type":"-"},
                  {"MSB": 190},
                  {"LSB": 190},
                  {"Unit": "-"}
               ]},
               {"DsField":[
                  {"Name" :"Event 1 ODO"},
                  {"Descr":"Event 1 ODO"},
                  {"Type":"ODO"},
                  {"MSB": 191},
                  {"LSB": 194},
                  {"Unit": "km"},
                  {"Resolution": 0.0001}
               ]},
               {"DsField":[
                  {"Name" :"Event_1_ClassID"},
                  {"Descr":"Event_1_ClassID"},
                  {"Type":"-"},
                  {"MSB": 195},
                  {"LSB": 195},
                  {"Unit": "-"}
               ]},
               {"DsField":[
                  {"Name" :"Event 2 ODO"},
                  {"Descr":"Event 2 ODO"},
                  {"Type":"ODO"},
                  {"MSB": 196},
                  {"LSB": 199},
                  {"Unit": "km"},
                  {"Resolution": 0.0001}
               ]},
               {"DsField":[
                  {"Name" :"Event_2_ClassID"},
                  {"Descr":"Event_2_ClassID"},
                  {"Type":"-"},
                  {"MSB": 200},
                  {"LSB": 200},
                  {"Unit": "-"}
               ]}
            ]}
         ]},
         {"DsSubField":[
            {"DsId": "DS216" },
            {"DsDscr":"Velocity Distribution"},
            {"DsStartByte": 201},
            {"DsLength": 44},
            {"DsFields":[
					{"DsField":[
                  {"Name" :"StateChangeCtr_C1"},
                  {"Descr":"StateChangeCtr_C1"},
                  {"Type":"-"},
                  {"MSB": 201},
                  {"LSB": 204},
                  {"Unit": "-"}
               ]},
               {"DsField":[
                  {"Name" :"StateChangeCtr_C2"},
                  {"Descr":"StateChangeCtr_C2"},
                  {"Type":"-"},
                  {"MSB": 205},
                  {"LSB": 208},
                  {"Unit": "-"}
               ]},
					{"DsField":[
                  {"Name" :"StateChangeCtr_C3"},
                  {"Descr":"StateChangeCtr_C3"},
                  {"Type":"-"},
                  {"MSB": 209},
                  {"LSB": 212},
                  {"Unit": "-"}
               ]},
               {"DsField":[
                  {"Name" :"StateChangeCtr_C4"},
                  {"Descr":"StateChangeCtr_C4"},
                  {"Type":"-"},
                  {"MSB": 213},
                  {"LSB": 216},
                  {"Unit": "-"}
               ]},
					{"DsField":[
                  {"Name" :"StateChangeCtr_C5"},
                  {"Descr":"StateChangeCtr_C5"},
                  {"Type":"-"},
                  {"MSB": 217},
                  {"LSB": 220},
                  {"Unit": "-"}
               ]},
               {"DsField":[
                  {"Name" :"StateChangeCtr_C6"},
                  {"Descr":"StateChangeCtr_C6"},
                  {"Type":"-"},
                  {"MSB": 221},
                  {"LSB": 224},
                  {"Unit": "-"}
               ]},
					{"DsField":[
                  {"Name" :"StateChangeCtr_C7"},
                  {"Descr":"StateChangeCtr_C7"},
                  {"Type":"-"},
                  {"MSB": 225},
                  {"LSB": 228},
                  {"Unit": "-"}
               ]},
               {"DsField":[
                  {"Name" :"StateChangeCtr_C8"},
                  {"Descr":"StateChangeCtr_C8"},
                  {"Type":"-"},
                  {"MSB": 229},
                  {"LSB": 232},
                  {"Unit": "-"}
               ]},
					{"DsField":[
                  {"Name" :"StateChangeCtr_C9"},
                  {"Descr":"StateChangeCtr_C9"},
                  {"Type":"-"},
                  {"MSB": 233},
                  {"LSB": 236},
                  {"Unit": "-"}
               ]},
               {"DsField":[
                  {"Name" :"StateChangeCtr_C10"},
                  {"Descr":"StateChangeCtr_C10"},
                  {"Type":"-"},
                  {"MSB": 237},
                  {"LSB": 240},
                  {"Unit": "-"}
               ]},
					{"DsField":[
                  {"Name" :"StateChangeCtr_C11"},
                  {"Descr":"StateChangeCtr_C11"},
                  {"Type":"-"},
                  {"MSB": 241},
                  {"LSB": 244},
                  {"Unit": "-"}
               ]}
            ]}
         ]},
         {"DsSubField":[
            {"DsId": "DS236" },
            {"DsDscr":"Trailer Detection"},
            {"DsStartByte": 245},
            {"DsLength": 17},
            {"DsFields":[
               {"DsField":[
                  {"Name" :"StateChangeCtr_C1"},
                  {"Descr":"StateChangeCtr_C1"},
                  {"Type":"-"},
                  {"MSB": 245},
                  {"LSB": 246},
                  {"Unit": "-"}
               ]},
               {"DsField":[
                  {"Name" :"Event 0 ODO"},
                  {"Descr":"Event 0 ODO"},
                  {"Type":"ODO"},
                  {"MSB": 247},
                  {"LSB": 250},
                  {"Unit": "km"},
                  {"Resolution": 0.0001}
               ]},
               {"DsField":[
                  {"Name" :"Event_0_ClassID"},
                  {"Descr":"Event_0_ClassID"},
                  {"Type":"-"},
                  {"MSB": 251},
                  {"LSB": 251},
                  {"Unit": "-"}
               ]},
               {"DsField":[
                  {"Name" :"Event 1 ODO"},
                  {"Descr":"Event 1 ODO"},
                  {"Type":"ODO"},
                  {"MSB": 252},
                  {"LSB": 255},
                  {"Unit": "km"},
                  {"Resolution": 0.0001}
               ]},
               {"DsField":[
                  {"Name" :"Event_1_ClassID"},
                  {"Descr":"Event_1_ClassID"},
                  {"Type":"-"},
                  {"MSB": 256},
                  {"LSB": 256},
                  {"Unit": "-"}
               ]},
               {"DsField":[
                  {"Name" :"Event 2 ODO"},
                  {"Descr":"Event 2 ODO"},
                  {"Type":"ODO"},
                  {"MSB": 257},
                  {"LSB": 260},
                  {"Unit": "km"},
                  {"Resolution": 0.0001}
               ]},
               {"DsField":[
                  {"Name" :"Event_2_ClassID"},
                  {"Descr":"Event_2_ClassID"},
                  {"Type":"-"},
                  {"MSB": 261},
                  {"LSB": 261},
                  {"Unit": "-"}
               ]}
            ]}
         ]},
         {"DsSubField":[
            {"DsId": "DS237" },
            {"DsDscr":"Trailer Attached Duration"},
            {"DsStartByte": 262},
            {"DsLength": 4},
            {"DsFields":[
               {"DsField":[
                  {"Name" :"StateChangeCtr_C1"},
                  {"Descr":"StateChangeCtr_C1"},
                  {"Type":"-"},
                  {"MSB": 262},
                  {"LSB": 265},
                  {"Unit": "-"}
               ]}
            ]}
         ]}
      ]},
      {"SubFields":[
         {"SubField":[
            {"Name":"Version Number"},
            {"Descr":"Version Number"},
            {"StartByte": 0},
            {"Length":1}
         ]},
         {"SubField":[
            {"Name":"Unallocated"},
            {"Descr":"Add the description of the field"},
            {"StartByte": 266},
            {"Length": 23}
         ]}
      ]}
   ]}
]}
